…
``` r
.libPaths()
```

    ## [1] "/Library/Frameworks/R.framework/Versions/3.5/Resources/library"

``` r
ipt <- installed.packages() %>%
  as_tibble() %>%
  select(Package, LibPath, Version, Priority, Built)

ipt
```

    ## # A tibble: 246 x 5
    ##    Package      LibPath                              Version Priority Built
    ##    <chr>        <chr>                                <chr>   <chr>    <chr>
    ##  1 acepack      /Library/Frameworks/R.framework/Ver… 1.4.1   <NA>     3.5.0
    ##  2 ade4         /Library/Frameworks/R.framework/Ver… 1.7-13  <NA>     3.5.0
    ##  3 annotate     /Library/Frameworks/R.framework/Ver… 1.60.1  <NA>     3.5.2
    ##  4 AnnotationD… /Library/Frameworks/R.framework/Ver… 1.44.0  <NA>     3.5.1
    ##  5 AnnotationF… /Library/Frameworks/R.framework/Ver… 1.24.0  <NA>     3.5.1
    ##  6 ape          /Library/Frameworks/R.framework/Ver… 5.3     <NA>     3.5.2
    ##  7 askpass      /Library/Frameworks/R.framework/Ver… 1.1     <NA>     3.5.2
    ##  8 assertthat   /Library/Frameworks/R.framework/Ver… 0.2.1   <NA>     3.5.1
    ##  9 backports    /Library/Frameworks/R.framework/Ver… 1.1.3   <NA>     3.5.0
    ## 10 base         /Library/Frameworks/R.framework/Ver… 3.5.1   base     3.5.1
    ## # … with 236 more rows
